<?xml version="1.0" encoding="UTF-8" standalone="no"?>
<svg
   xmlns:dc="http://purl.org/dc/elements/1.1/"
   xmlns:cc="http://creativecommons.org/ns#"
   xmlns:rdf="http://www.w3.org/1999/02/22-rdf-syntax-ns#"
   xmlns:svg="http://www.w3.org/2000/svg"
   xmlns="http://www.w3.org/2000/svg"
   xmlns:sodipodi="http://sodipodi.sourceforge.net/DTD/sodipodi-0.dtd"
   xmlns:inkscape="http://www.inkscape.org/namespaces/inkscape"
   id="Слой_1"
   data-name="Слой 1"
   viewBox="0 0 24 24"
   version="1.1"
   sodipodi:docname="save_symbol_to_schematic.svg"
   inkscape:version="0.92.2 5c3e80d, 2017-08-06"
   inkscape:export-filename="/Users/jeff/kicad_dev/kicad/bitmaps_png/png_26/save_symbol_to_schematic.png"
   inkscape:export-xdpi="96"
   inkscape:export-ydpi="96">
  <sodipodi:namedview
     pagecolor="#ffffff"
     bordercolor="#666666"
     borderopacity="1"
     objecttolerance="10"
     gridtolerance="10"
     guidetolerance="10"
     inkscape:pageopacity="0"
     inkscape:pageshadow="2"
     inkscape:window-width="2560"
     inkscape:window-height="1371"
     id="namedview30"
     showgrid="true"
     inkscape:zoom="27.961538"
     inkscape:cx="3.4154056"
     inkscape:cy="13"
     inkscape:window-x="0"
     inkscape:window-y="0"
     inkscape:window-maximized="1"
     inkscape:document-rotation="0"
     inkscape:current-layer="Слой_1">
    <inkscape:grid
       type="xygrid"
       id="grid_kicad"
       spacingx="0.5"
       spacingy="0.5"
       color="#9999ff"
       opacity="0.13"
       empspacing="2" />
  </sodipodi:namedview>
  <metadata
     id="metadata43">
    <rdf:RDF>
      <cc:Work
         rdf:about="">
        <cc:license
           rdf:resource="http://creativecommons.org/licenses/by-sa/4.0/" />
        <dc:format>image/svg+xml</dc:format>
        <dc:type
           rdf:resource="http://purl.org/dc/dcmitype/StillImage" />
        <dc:title>add_arc</dc:title>
      </cc:Work>
      <cc:License
         rdf:about="http://creativecommons.org/licenses/by-sa/4.0/">
        <cc:permits
           rdf:resource="http://creativecommons.org/ns#Reproduction" />
        <cc:permits
           rdf:resource="http://creativecommons.org/ns#Distribution" />
        <cc:requires
           rdf:resource="http://creativecommons.org/ns#Notice" />
        <cc:requires
           rdf:resource="http://creativecommons.org/ns#Attribution" />
        <cc:permits
           rdf:resource="http://creativecommons.org/ns#DerivativeWorks" />
        <cc:requires
           rdf:resource="http://creativecommons.org/ns#ShareAlike" />
      </cc:License>
    </rdf:RDF>
  </metadata>
  <defs
     id="defs27099">
    <style
       id="style27097">.cls-1{fill:#b9b9b9;}.cls-2,.cls-3,.cls-4,.cls-5{fill:none;stroke-linejoin:round;}.cls-2,.cls-5{stroke:#333;}.cls-2,.cls-3{stroke-linecap:round;}.cls-2,.cls-4,.cls-5{stroke-width:1.9097px;}.cls-3,.cls-4{stroke:#545454;}.cls-3{stroke-width:0.9549px;}.cls-5{stroke-linecap:square;}.cls-6{fill:#333;}.cls-7{fill:#1a81c4;}.cls-8{fill:#bf2641;}.cls-9{fill:#fff;}</style>
  </defs>
  <title
     id="title27101">save_symbol_to_schematic</title>
  <path
     class="cls-1"
     d="m 3.4961,0.004 h 13.9991 a 3.5,3.5 0 0 1 3.5,3.5 v 13.9989 a 3.5,3.5 0 0 1 -3.5,3.5 H 3.4961 a 3.5,3.5 0 0 1 -3.5,-3.5 V 3.5038 a 3.5,3.5 0 0 1 3.5,-3.5 z"
     id="path27103"
     style="fill:#d0c5ac;fill-opacity:1" />
  <path
     id="line27105"
     style="fill:none;stroke:#545454;stroke-width:1.90999997;stroke-linecap:square;stroke-linejoin:round;stroke-miterlimit:4;stroke-dasharray:none;stroke-opacity:1"
     d="m 10,0.6 0.0851,10.8275"
     class="cls-2"
     sodipodi:nodetypes="cc"
     inkscape:connector-curvature="0" />
  <line
     class="cls-3"
     x1="16.361799"
     y1="15.384199"
     x2="11.8659"
     y2="15.384199"
     id="line27111" />
  <line
     class="cls-3"
     x1="14.6681"
     y1="13.9061"
     x2="11.8659"
     y2="13.9061"
     id="line27113" />
  <line
     class="cls-4"
     x1="-0.0051000118"
     y1="14.950799"
     x2="4.8912001"
     y2="14.950799"
     id="line27115"
     style="fill:none;stroke:#545454;stroke-width:1.91;stroke-linejoin:round;stroke-miterlimit:4;stroke-dasharray:none" />
  <line
     class="cls-2"
     x1="6.2642002"
     y1="11.9921"
     x2="6.2642002"
     y2="17.907"
     id="line27117"
     style="fill:none;stroke:#333333;stroke-width:1.90970004px;stroke-linecap:round;stroke-linejoin:round" />
  <line
     class="cls-5"
     x1="10.0851"
     y1="5.9862995"
     x2="20.025101"
     y2="5.9862995"
     id="line27119"
     style="fill:none;stroke:#545454;stroke-width:1.90999997;stroke-linecap:square;stroke-linejoin:round;stroke-miterlimit:4;stroke-dasharray:none;stroke-opacity:1" />
  <line
     class="cls-4"
     x1="9.9953003"
     y1="21.004101"
     x2="9.9953003"
     y2="18.649799"
     id="line27121" />
  <path
     class="cls-6"
     d="M 11.7068,5.9863 A 1.6218,1.6218 0 1 1 10.0851,4.3646 1.6218,1.6218 0 0 1 11.7068,5.9863 Z"
     id="path27123"
     inkscape:connector-curvature="0"
     style="fill:#333333" />
  <line
     class="cls-2"
     x1="10.0851"
     y1="11.4275"
     x2="6.3898001"
     y2="13.7576"
     id="line27129"
     style="fill:none;stroke:#333333;stroke-width:1.90970004px;stroke-linecap:round;stroke-linejoin:round" />
  <line
     class="cls-2"
     x1="9.6569996"
     y1="18.058401"
     x2="6.2872"
     y2="16.1185"
     id="line27131"
     style="fill:none;stroke:#333333;stroke-width:1.90970004px;stroke-linecap:round;stroke-linejoin:round" />
  <path
     class="cls-7"
     d="M 8.2045,18.3639 9.448,16.5974 a 0.6456,0.6456 0 0 1 1.1553,0.2194 l 0.335,1.3825 a 0.7888,0.7888 0 0 1 -0.6552,0.9669 l -1.46,0.2083 A 0.6455,0.6455 0 0 1 8.2045,18.3639 Z"
     id="path27133"
     style="fill:#545454;fill-opacity:1"
     inkscape:connector-curvature="0" />
  <line
     class="cls-2"
     x1="4.0162001"
     y1="14.950799"
     x2="6.2642002"
     y2="14.950799"
     id="line27135"
     style="fill:none;stroke:#333333;stroke-width:1.90970004px;stroke-linecap:round;stroke-linejoin:round" />
  <ellipse
     style="fill:#bf2641;fill-opacity:1;stroke:#ffffff;stroke-width:1.94852;stroke-linecap:square;stroke-miterlimit:4;stroke-dasharray:none;stroke-opacity:1;paint-order:stroke fill markers"
     id="path8150"
     ry="7.160358"
     rx="7.1324968"
     cy="16.847065"
     cx="16.91161" />
  <path
     class="cls-9"
     d="m 19.2075,12.5582 h -6.3532 v 8.6345 h 8.6345 v -6.4758 z m -1.251,0.898 v 2.26 h -3.5323 v -2.26 z m 1.9624,6.8838 h -5.4947 v -2.68 h 5.4947 z"
     id="path27139" />
</svg>
